[gd_scene load_steps=2 format=3 uid="uid://csahk6y1bqiha"]

[ext_resource type="Script" path="res://Scripts/Concepts/_Camera2D.cs" id="1_xxtvf"]

[node name="Camera" type="Node2D"]
script = ExtResource("1_xxtvf")
viewSize = Vector2(100, 50)
